{
  "project_info": {
    "project_number": "899688528611",
    "firebase_url": "https://usermartjinni.firebaseio.com",
    "project_id": "usermartjinni",
    "storage_bucket": "usermartjinni.appspot.com"
  },
  "client": [
    {
      "client_info": {
        "mobilesdk_app_id": "1:899688528611:android:f347a5e7d6271160",
        "android_client_info": {
          "package_name": "com.martjinni.Appadmin"
        }
      },
      "oauth_client": [
        {
          "client_id": "899688528611-g1n78ufcim3mn2g29kbf3mndmohk9vcs.apps.googleusercontent.com",
          "client_type": 3
        }
      ],
      "api_key": [
        {
          "current_key": "AIzaSyB4A6cA5W8obgyf6bsAgA8qD6ZHZAPSeCY"
        }
      ],
      "services": {
        "analytics_service": {
          "status": 1
        },
        "appinvite_service": {
          "status": 1,
          "other_platform_oauth_client": []
        },
        "ads_service": {
          "status": 2
        }
      }
    },
    {
      "client_info": {
        "mobilesdk_app_id": "1:899688528611:android:42eaa91611ddacf2",
        "android_client_info": {
          "package_name": "com.martjinni.Appdelmed"
        }
      },
      "oauth_client": [
        {
          "client_id": "899688528611-g1n78ufcim3mn2g29kbf3mndmohk9vcs.apps.googleusercontent.com",
          "client_type": 3
        }
      ],
      "api_key": [
        {
          "current_key": "AIzaSyB4A6cA5W8obgyf6bsAgA8qD6ZHZAPSeCY"
        }
      ],
      "services": {
        "analytics_service": {
          "status": 1
        },
        "appinvite_service": {
          "status": 1,
          "other_platform_oauth_client": []
        },
        "ads_service": {
          "status": 2
        }
      }
    },
    {
      "client_info": {
        "mobilesdk_app_id": "1:899688528611:android:7760074631e4210c",
        "android_client_info": {
          "package_name": "com.martjinni.Appshops"
        }
      },
      "oauth_client": [
        {
          "client_id": "899688528611-g1n78ufcim3mn2g29kbf3mndmohk9vcs.apps.googleusercontent.com",
          "client_type": 3
        }
      ],
      "api_key": [
        {
          "current_key": "AIzaSyB4A6cA5W8obgyf6bsAgA8qD6ZHZAPSeCY"
        }
      ],
      "services": {
        "analytics_service": {
          "status": 1
        },
        "appinvite_service": {
          "status": 1,
          "other_platform_oauth_client": []
        },
        "ads_service": {
          "status": 2
        }
      }
    },
    {
      "client_info": {
        "mobilesdk_app_id": "1:899688528611:android:dbaeb5cc423823ec",
        "android_client_info": {
          "package_name": "com.martjinni.Appuser"
        }
      },
      "oauth_client": [
        {
          "client_id": "899688528611-g1n78ufcim3mn2g29kbf3mndmohk9vcs.apps.googleusercontent.com",
          "client_type": 3
        }
      ],
      "api_key": [
        {
          "current_key": "AIzaSyB4A6cA5W8obgyf6bsAgA8qD6ZHZAPSeCY"
        }
      ],
      "services": {
        "analytics_service": {
          "status": 1
        },
        "appinvite_service": {
          "status": 1,
          "other_platform_oauth_client": []
        },
        "ads_service": {
          "status": 2
        }
      }
    },
    {
      "client_info": {
        "mobilesdk_app_id": "1:899688528611:android:4feb65bb321b3a2c",
        "android_client_info": {
          "package_name": "com.martjinni.delmedApp"
        }
      },
      "oauth_client": [
        {
          "client_id": "899688528611-g1n78ufcim3mn2g29kbf3mndmohk9vcs.apps.googleusercontent.com",
          "client_type": 3
        }
      ],
      "api_key": [
        {
          "current_key": "AIzaSyB4A6cA5W8obgyf6bsAgA8qD6ZHZAPSeCY"
        }
      ],
      "services": {
        "analytics_service": {
          "status": 1
        },
        "appinvite_service": {
          "status": 1,
          "other_platform_oauth_client": []
        },
        "ads_service": {
          "status": 2
        }
      }
    },
    {
      "client_info": {
        "mobilesdk_app_id": "1:899688528611:android:277389e66f972f8c",
        "android_client_info": {
          "package_name": "com.martjinni.shopsApp"
        }
      },
      "oauth_client": [
        {
          "client_id": "899688528611-g1n78ufcim3mn2g29kbf3mndmohk9vcs.apps.googleusercontent.com",
          "client_type": 3
        }
      ],
      "api_key": [
        {
          "current_key": "AIzaSyB4A6cA5W8obgyf6bsAgA8qD6ZHZAPSeCY"
        }
      ],
      "services": {
        "analytics_service": {
          "status": 1
        },
        "appinvite_service": {
          "status": 1,
          "other_platform_oauth_client": []
        },
        "ads_service": {
          "status": 2
        }
      }
    },
    {
      "client_info": {
        "mobilesdk_app_id": "1:899688528611:android:57911811319a9673",
        "android_client_info": {
          "package_name": "com.martjinni.userApp"
        }
      },
      "oauth_client": [
        {
          "client_id": "899688528611-g1n78ufcim3mn2g29kbf3mndmohk9vcs.apps.googleusercontent.com",
          "client_type": 3
        }
      ],
      "api_key": [
        {
          "current_key": "AIzaSyB4A6cA5W8obgyf6bsAgA8qD6ZHZAPSeCY"
        }
      ],
      "services": {
        "analytics_service": {
          "status": 1
        },
        "appinvite_service": {
          "status": 1,
          "other_platform_oauth_client": []
        },
        "ads_service": {
          "status": 2
        }
      }
    }
  ],
  "configuration_version": "1"
}